@startuml
skinparam handwritten true
skinparam monochrome true
skinparam packageStyle rect
skinparam defaultFontName FG Virgil
skinparam shadowing false

actor User
boundary WorkBookView 
control FilterPresenter

box "NSheets Client"
participant WorkBookView 
participant FilterPresenter
end box


User -> WorkBookView : onReveal()
WorkBookView ->> FilterPresenter: OnButtonClick()
FilterPresenter-> WorkBookView : Show Filter Window
WorkBookView -> FilterPresenter: removeFilter()
FilterPresenter -> WorkBookView: redrawTable()
@enduml