@startuml
skinparam handwritten true
skinparam monochrome true
skinparam packageStyle rect
skinparam defaultFontName FG Virgil
skinparam shadowing false

actor User
boundary WorkBookView 
control FilterPresenter
control FilterController

box "NSheets Client"
participant WorkBookView 
participant FilterPresenter
participant FilterController
end box


User -> WorkBookView : onReveal()
WorkBookView ->> FilterPresenter: OnButtonClick()
FilterPresenter-> WorkBookView : Show Filter Window
WorkBookView -> FilterPresenter: inputFilter(StartCell,EndingCell,columnCell,Expression,customTable)
loop for each row in selection
     FilterPresenter -> FilterController: validateFormula(Expression)
     alt true case
         FilterPresenter -> FilterPresenter: showRow()
     else false case
         FilterPresenter -> FilterPresenter: hideRow()
     end
end
FilterPresenter -> WorkBookView: redrawTable()
@enduml